Project 1
…
fdp12 %>% filter(`Violent Crime rate` < 1200) %>% arrange(desc(`Violent Crime rate`)) %>% 
    select(`Violent Crime rate`, State, Year)

## # A tibble: 550 x 3
## # Groups:   Year [11]
##    `Violent Crime rate` State  Year
##                   <dbl> <chr> <dbl>
##  1                 790. SC     2004
##  2                 786. SC     2007
##  3                 771. SC     2006
##  4                 767  SC     2005
##  5                 762. TN     2006
##  6                 757  TN     2005
##  7                 755  TN     2007
##  8                 755. NV     2007
##  9                 749. NV     2006
## 10                 740. LA     2007
## # ... with 540 more rows

fdp1 %>% select(-c(1:31)) %>% group_by(State) %>% summarise_if(is.numeric, 
    funs(mean, var, min, max, sd, median, IQR))

## # A tibble: 50 x 78
##    State Population_mean `Violent Crime ~ `Murder and non~ `Legacy rape ra~
##    <chr>           <dbl>            <dbl>            <dbl>            <dbl>
##  1 Alab~        4705562              432.             7.02             32  
##  2 Alas~         700146.             638.             4.71             76.3
##  3 Ariz~        4624699.             482.             6.33             39.8
##  4 Cali~       37180107.             469.             5.56             23.2
##  5 Colo~        4984147.             343.             3.27             43.1
##  6 conn~        3543302.             283.             3.21             19.6
##  7 DC            605724.            1343.            24.5              35.0
##  8 Dela~         884918.             613.             5.05             37.9
##  9 flor~       18645118.             610.             5.59             31.4
## 10 geor~        9636972.             427.             6.18             22.7
## # ... with 40 more rows, and 73 more variables: `Robbery rate_mean` <dbl>,
## #   `Aggravated assault rate_mean` <dbl>, `Property crime
## #   rate_mean` <dbl>, `Burglary rate_mean` <dbl>, `Larceny-theft
## #   rate_mean` <dbl>, `Motor vehicle theft rate_mean` <dbl>,
## #   Total_Users_mean <dbl>, Population_var <dbl>, `Violent Crime
## #   rate_var` <dbl>, `Murder and nonnegligent manslaughter
## #   rate_var` <dbl>, `Legacy rape rate /1_var` <dbl>, `Robbery
## #   rate_var` <dbl>, `Aggravated assault rate_var` <dbl>, `Property crime
## #   rate_var` <dbl>, `Burglary rate_var` <dbl>, `Larceny-theft
…
fdp12 %>% group_by(State, Year) %>% summarise_if(is.numeric, 
    funs(mean, sd))

## # A tibble: 550 x 90
## # Groups:   State [50]
##    State  Year Total_mean Alcohol_mean `Alcohol only_m~ `Alcohol w/seco~
##    <chr> <dbl>      <dbl>        <dbl>            <dbl>            <dbl>
##  1 Alab~  2004    1808469       729366           402999           326367
##  2 Alab~  2005    1895917       746057           412323           333734
##  3 Alab~  2006    1962674       780815           433612           347203
##  4 Alab~  2007    1974739       806323           448707           357616
##  5 Alab~  2008    2076291       860427           483494           376933
##  6 Alab~  2009    2052174       855294           479134           376160
##  7 Alab~  2010    1928829       781692           431490           350202
##  8 Alab~  2011    1928123       756533           416950           339583
##  9 Alab~  2012    1825970       707863           391899           315964
## 10 Alab~  2013    1736547       647989           367484           280505
## # ... with 540 more rows, and 84 more variables: Opiates_mean <dbl>,
## #   Heroin_mean <dbl>, `Other opiates/synthetics_mean` <dbl>, `Non-RX
## #   methadone_mean` <dbl>, `Other opiates/synthetics__1_mean` <dbl>,
## #   Cocaine_mean <dbl>, `Smoked cocaine_mean` <dbl>, `Non-smoked
## #   cocaine_mean` <dbl>, `Marijuana/hashish_mean` <dbl>,
## #   Stimulants_mean <dbl>, Methamphetamine_mean <dbl>, `Other
## #   amphetamines_mean` <dbl>, `Other stimulants_mean` <dbl>, `Other
## #   drugs_mean` <dbl>, Tranquilizers_mean <dbl>,
## #   Benzodiazepines_mean <dbl>, `Other tranquilizers_mean` <dbl>,
…
fdp12 %>% pivot_wider(names_from = "Year", values_from = `Murder and nonnegligent manslaughter rate`)

## # A tibble: 561 x 55
##     Total Alcohol `Alcohol only` `Alcohol w/seco~ Opiates Heroin
##     <dbl>   <dbl>          <dbl>            <dbl>   <dbl>  <dbl>
##  1 1.81e6  729366         402999           326367  323409 262518
##  2 1.81e6  729366         402999           326367  323409 262518
##  3 1.81e6  729366         402999           326367  323409 262518
##  4 1.81e6  729366         402999           326367  323409 262518
##  5 1.81e6  729366         402999           326367  323409 262518
##  6 1.81e6  729366         402999           326367  323409 262518
##  7 1.81e6  729366         402999           326367  323409 262518
##  8 1.81e6  729366         402999           326367  323409 262518
##  9 1.81e6  729366         402999           326367  323409 262518
## 10 1.81e6  729366         402999           326367  323409 262518
## # ... with 551 more rows, and 49 more variables: `Other
## #   opiates/synthetics` <dbl>, `Non-RX methadone` <dbl>, `Other
## #   opiates/synthetics__1` <dbl>, Cocaine <dbl>, `Smoked cocaine` <dbl>,
## #   `Non-smoked cocaine` <dbl>, `Marijuana/hashish` <dbl>,
## #   Stimulants <dbl>, Methamphetamine <dbl>, `Other amphetamines` <dbl>,
## #   `Other stimulants` <dbl>, `Other drugs` <dbl>, Tranquilizers <dbl>,
## #   Benzodiazepines <dbl>, `Other tranquilizers` <dbl>,
## #   `Sedatives/hypnotics` <dbl>, Barbiturates <dbl>, `Other
## #   sedatives/hypnotics` <dbl>, Hallucinogens <dbl>, PCP <dbl>,
…
fdp12 %>% pivot_wider(names_from = "Year", values_from = `Murder and nonnegligent manslaughter rate`) %>% 
    pivot_longer(c("2004", "2005", "2006", "2007", "2008", "2009", 
        "2010", "2011", "2012", "2013", "2014"), names_to = "Year", 
        values_to = "Murder and nonnegligent manslaughter rate") %>% 
    na.omit()

## # A tibble: 561 x 46
##     Total Alcohol `Alcohol only` `Alcohol w/seco~ Opiates Heroin
##     <dbl>   <dbl>          <dbl>            <dbl>   <dbl>  <dbl>
##  1 1.81e6  729366         402999           326367  323409 262518
##  2 1.81e6  729366         402999           326367  323409 262518
##  3 1.81e6  729366         402999           326367  323409 262518
##  4 1.81e6  729366         402999           326367  323409 262518
##  5 1.81e6  729366         402999           326367  323409 262518
##  6 1.81e6  729366         402999           326367  323409 262518
##  7 1.81e6  729366         402999           326367  323409 262518
##  8 1.81e6  729366         402999           326367  323409 262518
##  9 1.81e6  729366         402999           326367  323409 262518
## 10 1.81e6  729366         402999           326367  323409 262518
## # ... with 551 more rows, and 40 more variables: `Other
## #   opiates/synthetics` <dbl>, `Non-RX methadone` <dbl>, `Other
## #   opiates/synthetics__1` <dbl>, Cocaine <dbl>, `Smoked cocaine` <dbl>,
## #   `Non-smoked cocaine` <dbl>, `Marijuana/hashish` <dbl>,
## #   Stimulants <dbl>, Methamphetamine <dbl>, `Other amphetamines` <dbl>,
## #   `Other stimulants` <dbl>, `Other drugs` <dbl>, Tranquilizers <dbl>,
## #   Benzodiazepines <dbl>, `Other tranquilizers` <dbl>,
## #   `Sedatives/hypnotics` <dbl>, Barbiturates <dbl>, `Other
## #   sedatives/hypnotics` <dbl>, Hallucinogens <dbl>, PCP <dbl>,
…
